<svg version="1.2" xmlns="http://www.w3.org/2000/svg" viewBox="0 0 362 112" width="362" height="112">
	<title>logo-tasky-complet-svg</title>
	<defs>
		<clipPath clipPathUnits="userSpaceOnUse" id="cp1">
			<path d="m10.75 9.05h90.59v90.59h-90.59z"/>
		</clipPath>
		<clipPath clipPathUnits="userSpaceOnUse" id="cp2">
			<path d="m56.05 9.05c-25.02 0-45.3 20.27-45.3 45.29 0 25.02 20.28 45.3 45.3 45.3 25.01 0 45.29-20.28 45.29-45.3 0-25.02-20.28-45.29-45.29-45.29z"/>
		</clipPath>
		<linearGradient id="g1" x2="1" gradientUnits="userSpaceOnUse" gradientTransform="matrix(90.593,0,0,90.589,10.75,9.045)">
			<stop offset="0" stop-color="#8c52ff"/>
			<stop offset=".004" stop-color="#8b53fe"/>
			<stop offset=".008" stop-color="#8b53fe"/>
			<stop offset=".012" stop-color="#8a53fd"/>
			<stop offset=".016" stop-color="#8a54fd"/>
			<stop offset=".02" stop-color="#8954fc"/>
			<stop offset=".023" stop-color="#8955fb"/>
			<stop offset=".027" stop-color="#8855fb"/>
			<stop offset=".031" stop-color="#8856fa"/>
			<stop offset=".035" stop-color="#8756fa"/>
			<stop offset=".039" stop-color="#8756f9"/>
			<stop offset=".043" stop-color="#8657f8"/>
			<stop offset=".047" stop-color="#8557f8"/>
			<stop offset=".051" stop-color="#8558f7"/>
			<stop offset=".055" stop-color="#8458f6"/>
			<stop offset=".059" stop-color="#8458f6"/>
			<stop offset=".063" stop-color="#8359f5"/>
			<stop offset=".066" stop-color="#8359f5"/>
			<stop offset=".07" stop-color="#825af4"/>
			<stop offset=".074" stop-color="#825af3"/>
			<stop offset=".078" stop-color="#815bf3"/>
			<stop offset=".082" stop-color="#815bf2"/>
			<stop offset=".086" stop-color="#805bf2"/>
			<stop offset=".09" stop-color="#7f5cf1"/>
			<stop offset=".094" stop-color="#7f5cf0"/>
			<stop offset=".098" stop-color="#7e5df0"/>
			<stop offset=".102" stop-color="#7e5def"/>
			<stop offset=".105" stop-color="#7d5eef"/>
			<stop offset=".109" stop-color="#7d5eee"/>
			<stop offset=".113" stop-color="#7c5eed"/>
			<stop offset=".117" stop-color="#7c5fed"/>
			<stop offset=".121" stop-color="#7b5fec"/>
			<stop offset=".125" stop-color="#7a60eb"/>
			<stop offset=".129" stop-color="#7a60eb"/>
			<stop offset=".133" stop-color="#7961ea"/>
			<stop offset=".137" stop-color="#7961ea"/>
			<stop offset=".141" stop-color="#7861e9"/>
			<stop offset=".145" stop-color="#7862e8"/>
			<stop offset=".148" stop-color="#7762e8"/>
			<stop offset=".152" stop-color="#7763e7"/>
			<stop offset=".156" stop-color="#7663e7"/>
			<stop offset=".16" stop-color="#7664e6"/>
			<stop offset=".164" stop-color="#7564e5"/>
			<stop offset=".168" stop-color="#7464e5"/>
			<stop offset=".172" stop-color="#7465e4"/>
			<stop offset=".176" stop-color="#7365e4"/>
			<stop offset=".18" stop-color="#7366e3"/>
			<stop offset=".184" stop-color="#7266e2"/>
			<stop offset=".188" stop-color="#7267e2"/>
			<stop offset=".191" stop-color="#7167e1"/>
			<stop offset=".195" stop-color="#7167e1"/>
			<stop offset=".199" stop-color="#7068e0"/>
			<stop offset=".203" stop-color="#7068df"/>
			<stop offset=".207" stop-color="#6f69df"/>
			<stop offset=".211" stop-color="#6e69de"/>
			<stop offset=".215" stop-color="#6e6add"/>
			<stop offset=".219" stop-color="#6d6add"/>
			<stop offset=".223" stop-color="#6d6adc"/>
			<stop offset=".227" stop-color="#6c6bdc"/>
			<stop offset=".23" stop-color="#6c6bdb"/>
			<stop offset=".234" stop-color="#6b6cda"/>
			<stop offset=".238" stop-color="#6b6cda"/>
			<stop offset=".242" stop-color="#6a6cd9"/>
			<stop offset=".246" stop-color="#6a6dd9"/>
			<stop offset=".25" stop-color="#696dd8"/>
			<stop offset=".254" stop-color="#686ed7"/>
			<stop offset=".258" stop-color="#686ed7"/>
			<stop offset=".262" stop-color="#676fd6"/>
			<stop offset=".266" stop-color="#676fd6"/>
			<stop offset=".27" stop-color="#666fd5"/>
			<stop offset=".273" stop-color="#6670d4"/>
			<stop offset=".277" stop-color="#6570d4"/>
			<stop offset=".281" stop-color="#6571d3"/>
			<stop offset=".285" stop-color="#6471d2"/>
			<stop offset=".289" stop-color="#6472d2"/>
			<stop offset=".293" stop-color="#6372d1"/>
			<stop offset=".297" stop-color="#6272d1"/>
			<stop offset=".301" stop-color="#6273d0"/>
			<stop offset=".305" stop-color="#6173cf"/>
			<stop offset=".309" stop-color="#6174cf"/>
			<stop offset=".313" stop-color="#6074ce"/>
			<stop offset=".316" stop-color="#6075ce"/>
			<stop offset=".32" stop-color="#5f75cd"/>
			<stop offset=".324" stop-color="#5f75cc"/>
			<stop offset=".328" stop-color="#5e76cc"/>
			<stop offset=".332" stop-color="#5e76cb"/>
			<stop offset=".336" stop-color="#5d77cb"/>
			<stop offset=".34" stop-color="#5c77ca"/>
			<stop offset=".344" stop-color="#5c78c9"/>
			<stop offset=".348" stop-color="#5b78c9"/>
			<stop offset=".352" stop-color="#5b78c8"/>
			<stop offset=".355" stop-color="#5a79c8"/>
			<stop offset=".359" stop-color="#5a79c7"/>
			<stop offset=".363" stop-color="#597ac6"/>
			<stop offset=".367" stop-color="#597ac6"/>
			<stop offset=".371" stop-color="#587bc5"/>
			<stop offset=".375" stop-color="#577bc4"/>
			<stop offset=".379" stop-color="#577bc4"/>
			<stop offset=".383" stop-color="#567cc3"/>
			<stop offset=".387" stop-color="#567cc3"/>
			<stop offset=".391" stop-color="#557dc2"/>
			<stop offset=".395" stop-color="#557dc1"/>
			<stop offset=".398" stop-color="#547dc1"/>
			<stop offset=".402" stop-color="#547ec0"/>
			<stop offset=".406" stop-color="#537ec0"/>
			<stop offset=".41" stop-color="#537fbf"/>
			<stop offset=".414" stop-color="#527fbe"/>
			<stop offset=".418" stop-color="#5180be"/>
			<stop offset=".422" stop-color="#5180bd"/>
			<stop offset=".426" stop-color="#5080bd"/>
			<stop offset=".43" stop-color="#5081bc"/>
			<stop offset=".434" stop-color="#4f81bb"/>
			<stop offset=".438" stop-color="#4f82bb"/>
			<stop offset=".441" stop-color="#4e82ba"/>
			<stop offset=".445" stop-color="#4e83ba"/>
			<stop offset=".449" stop-color="#4d83b9"/>
			<stop offset=".453" stop-color="#4d83b8"/>
			<stop offset=".457" stop-color="#4c84b8"/>
			<stop offset=".461" stop-color="#4b84b7"/>
			<stop offset=".465" stop-color="#4b85b6"/>
			<stop offset=".469" stop-color="#4a85b6"/>
			<stop offset=".473" stop-color="#4a86b5"/>
			<stop offset=".477" stop-color="#4986b5"/>
			<stop offset=".48" stop-color="#4986b4"/>
			<stop offset=".484" stop-color="#4887b3"/>
			<stop offset=".488" stop-color="#4887b3"/>
			<stop offset=".492" stop-color="#4788b2"/>
			<stop offset=".496" stop-color="#4788b2"/>
			<stop offset=".5" stop-color="#4689b1"/>
			<stop offset=".504" stop-color="#4589b0"/>
			<stop offset=".508" stop-color="#4589b0"/>
			<stop offset=".512" stop-color="#448aaf"/>
			<stop offset=".516" stop-color="#448aaf"/>
			<stop offset=".52" stop-color="#438bae"/>
			<stop offset=".523" stop-color="#438bad"/>
			<stop offset=".527" stop-color="#428cad"/>
			<stop offset=".531" stop-color="#428cac"/>
			<stop offset=".535" stop-color="#418cab"/>
			<stop offset=".539" stop-color="#418dab"/>
			<stop offset=".543" stop-color="#408daa"/>
			<stop offset=".547" stop-color="#3f8eaa"/>
			<stop offset=".551" stop-color="#3f8ea9"/>
			<stop offset=".555" stop-color="#3e8fa8"/>
			<stop offset=".559" stop-color="#3e8fa8"/>
			<stop offset=".563" stop-color="#3d8fa7"/>
			<stop offset=".566" stop-color="#3d90a7"/>
			<stop offset=".57" stop-color="#3c90a6"/>
			<stop offset=".574" stop-color="#3c91a5"/>
			<stop offset=".578" stop-color="#3b91a5"/>
			<stop offset=".582" stop-color="#3b91a4"/>
			<stop offset=".586" stop-color="#3a92a4"/>
			<stop offset=".59" stop-color="#3992a3"/>
			<stop offset=".594" stop-color="#3993a2"/>
			<stop offset=".598" stop-color="#3893a2"/>
			<stop offset=".602" stop-color="#3894a1"/>
			<stop offset=".605" stop-color="#3794a1"/>
			<stop offset=".609" stop-color="#3794a0"/>
			<stop offset=".613" stop-color="#36959f"/>
			<stop offset=".617" stop-color="#36959f"/>
			<stop offset=".621" stop-color="#35969e"/>
			<stop offset=".625" stop-color="#34969d"/>
			<stop offset=".629" stop-color="#34979d"/>
			<stop offset=".633" stop-color="#33979c"/>
			<stop offset=".637" stop-color="#33979c"/>
			<stop offset=".641" stop-color="#32989b"/>
			<stop offset=".645" stop-color="#32989a"/>
			<stop offset=".648" stop-color="#31999a"/>
			<stop offset=".652" stop-color="#319999"/>
			<stop offset=".656" stop-color="#309a99"/>
			<stop offset=".66" stop-color="#309a98"/>
			<stop offset=".664" stop-color="#2f9a97"/>
			<stop offset=".668" stop-color="#2e9b97"/>
			<stop offset=".672" stop-color="#2e9b96"/>
			<stop offset=".676" stop-color="#2d9c96"/>
			<stop offset=".68" stop-color="#2d9c95"/>
			<stop offset=".684" stop-color="#2c9d94"/>
			<stop offset=".688" stop-color="#2c9d94"/>
			<stop offset=".691" stop-color="#2b9d93"/>
			<stop offset=".695" stop-color="#2b9e92"/>
			<stop offset=".699" stop-color="#2a9e92"/>
			<stop offset=".703" stop-color="#2a9f91"/>
			<stop offset=".707" stop-color="#299f91"/>
			<stop offset=".711" stop-color="#28a090"/>
			<stop offset=".715" stop-color="#28a08f"/>
			<stop offset=".719" stop-color="#27a08f"/>
			<stop offset=".723" stop-color="#27a18e"/>
			<stop offset=".727" stop-color="#26a18e"/>
			<stop offset=".73" stop-color="#26a28d"/>
			<stop offset=".734" stop-color="#25a28c"/>
			<stop offset=".738" stop-color="#25a28c"/>
			<stop offset=".742" stop-color="#24a38b"/>
			<stop offset=".746" stop-color="#24a38b"/>
			<stop offset=".75" stop-color="#23a48a"/>
			<stop offset=".754" stop-color="#22a489"/>
			<stop offset=".758" stop-color="#22a589"/>
			<stop offset=".762" stop-color="#21a588"/>
			<stop offset=".766" stop-color="#21a588"/>
			<stop offset=".77" stop-color="#20a687"/>
			<stop offset=".773" stop-color="#20a686"/>
			<stop offset=".777" stop-color="#1fa786"/>
			<stop offset=".781" stop-color="#1fa785"/>
			<stop offset=".785" stop-color="#1ea884"/>
			<stop offset=".789" stop-color="#1ea884"/>
			<stop offset=".793" stop-color="#1da883"/>
			<stop offset=".797" stop-color="#1ca983"/>
			<stop offset=".801" stop-color="#1ca982"/>
			<stop offset=".805" stop-color="#1baa81"/>
			<stop offset=".809" stop-color="#1baa81"/>
			<stop offset=".813" stop-color="#1aab80"/>
			<stop offset=".816" stop-color="#1aab80"/>
			<stop offset=".82" stop-color="#19ab7f"/>
			<stop offset=".824" stop-color="#19ac7e"/>
			<stop offset=".828" stop-color="#18ac7e"/>
			<stop offset=".832" stop-color="#18ad7d"/>
			<stop offset=".836" stop-color="#17ad7d"/>
			<stop offset=".84" stop-color="#16ae7c"/>
			<stop offset=".844" stop-color="#16ae7b"/>
			<stop offset=".848" stop-color="#15ae7b"/>
			<stop offset=".852" stop-color="#15af7a"/>
			<stop offset=".855" stop-color="#14af79"/>
			<stop offset=".859" stop-color="#14b079"/>
			<stop offset=".863" stop-color="#13b078"/>
			<stop offset=".867" stop-color="#13b178"/>
			<stop offset=".871" stop-color="#12b177"/>
			<stop offset=".875" stop-color="#11b176"/>
			<stop offset=".879" stop-color="#11b276"/>
			<stop offset=".883" stop-color="#10b275"/>
			<stop offset=".887" stop-color="#10b375"/>
			<stop offset=".891" stop-color="#0fb374"/>
			<stop offset=".895" stop-color="#0fb473"/>
			<stop offset=".898" stop-color="#0eb473"/>
			<stop offset=".902" stop-color="#0eb472"/>
			<stop offset=".906" stop-color="#0db572"/>
			<stop offset=".91" stop-color="#0db571"/>
			<stop offset=".914" stop-color="#0cb670"/>
			<stop offset=".918" stop-color="#0bb670"/>
			<stop offset=".922" stop-color="#0bb66f"/>
			<stop offset=".926" stop-color="#0ab76f"/>
			<stop offset=".93" stop-color="#0ab76e"/>
			<stop offset=".934" stop-color="#09b86d"/>
			<stop offset=".938" stop-color="#09b86d"/>
			<stop offset=".941" stop-color="#08b96c"/>
			<stop offset=".945" stop-color="#08b96b"/>
			<stop offset=".949" stop-color="#07b96b"/>
			<stop offset=".953" stop-color="#07ba6a"/>
			<stop offset=".957" stop-color="#06ba6a"/>
			<stop offset=".961" stop-color="#05bb69"/>
			<stop offset=".965" stop-color="#05bb68"/>
			<stop offset=".969" stop-color="#04bc68"/>
			<stop offset=".973" stop-color="#04bc67"/>
			<stop offset=".977" stop-color="#03bc67"/>
			<stop offset=".98" stop-color="#03bd66"/>
			<stop offset=".984" stop-color="#02bd65"/>
			<stop offset=".988" stop-color="#02be65"/>
			<stop offset=".992" stop-color="#01be64"/>
			<stop offset=".996" stop-color="#01bf64"/>
			<stop offset="1" stop-color="#00bf63"/>
		</linearGradient>
		<clipPath clipPathUnits="userSpaceOnUse" id="cp3">
			<path d="m33 14.04h60v47.41h-60z"/>
		</clipPath>
		<linearGradient id="g2" x2="1" gradientUnits="userSpaceOnUse" gradientTransform="matrix(16,0,0,0,NaN,NaN)">
			<stop offset="0" stop-color="#8c52ff"/>
			<stop offset=".004" stop-color="#8b53fe"/>
			<stop offset=".008" stop-color="#8b53fe"/>
			<stop offset=".012" stop-color="#8a53fd"/>
			<stop offset=".016" stop-color="#8a54fd"/>
			<stop offset=".02" stop-color="#8954fc"/>
			<stop offset=".023" stop-color="#8955fb"/>
			<stop offset=".027" stop-color="#8855fb"/>
			<stop offset=".031" stop-color="#8856fa"/>
			<stop offset=".035" stop-color="#8756fa"/>
			<stop offset=".039" stop-color="#8756f9"/>
			<stop offset=".043" stop-color="#8657f8"/>
			<stop offset=".047" stop-color="#8557f8"/>
			<stop offset=".051" stop-color="#8558f7"/>
			<stop offset=".055" stop-color="#8458f6"/>
			<stop offset=".059" stop-color="#8458f6"/>
			<stop offset=".063" stop-color="#8359f5"/>
			<stop offset=".066" stop-color="#8359f5"/>
			<stop offset=".07" stop-color="#825af4"/>
			<stop offset=".074" stop-color="#825af3"/>
			<stop offset=".078" stop-color="#815bf3"/>
			<stop offset=".082" stop-color="#815bf2"/>
			<stop offset=".086" stop-color="#805bf2"/>
			<stop offset=".09" stop-color="#7f5cf1"/>
			<stop offset=".094" stop-color="#7f5cf0"/>
			<stop offset=".098" stop-color="#7e5df0"/>
			<stop offset=".102" stop-color="#7e5def"/>
			<stop offset=".105" stop-color="#7d5eef"/>
			<stop offset=".109" stop-color="#7d5eee"/>
			<stop offset=".113" stop-color="#7c5eed"/>
			<stop offset=".117" stop-color="#7c5fed"/>
			<stop offset=".121" stop-color="#7b5fec"/>
			<stop offset=".125" stop-color="#7a60eb"/>
			<stop offset=".129" stop-color="#7a60eb"/>
			<stop offset=".133" stop-color="#7961ea"/>
			<stop offset=".137" stop-color="#7961ea"/>
			<stop offset=".141" stop-color="#7861e9"/>
			<stop offset=".145" stop-color="#7862e8"/>
			<stop offset=".148" stop-color="#7762e8"/>
			<stop offset=".152" stop-color="#7763e7"/>
			<stop offset=".156" stop-color="#7663e7"/>
			<stop offset=".16" stop-color="#7664e6"/>
			<stop offset=".164" stop-color="#7564e5"/>
			<stop offset=".168" stop-color="#7464e5"/>
			<stop offset=".172" stop-color="#7465e4"/>
			<stop offset=".176" stop-color="#7365e4"/>
			<stop offset=".18" stop-color="#7366e3"/>
			<stop offset=".184" stop-color="#7266e2"/>
			<stop offset=".188" stop-color="#7267e2"/>
			<stop offset=".191" stop-color="#7167e1"/>
			<stop offset=".195" stop-color="#7167e1"/>
			<stop offset=".199" stop-color="#7068e0"/>
			<stop offset=".203" stop-color="#7068df"/>
			<stop offset=".207" stop-color="#6f69df"/>
			<stop offset=".211" stop-color="#6e69de"/>
			<stop offset=".215" stop-color="#6e6add"/>
			<stop offset=".219" stop-color="#6d6add"/>
			<stop offset=".223" stop-color="#6d6adc"/>
			<stop offset=".227" stop-color="#6c6bdc"/>
			<stop offset=".23" stop-color="#6c6bdb"/>
			<stop offset=".234" stop-color="#6b6cda"/>
			<stop offset=".238" stop-color="#6b6cda"/>
			<stop offset=".242" stop-color="#6a6cd9"/>
			<stop offset=".246" stop-color="#6a6dd9"/>
			<stop offset=".25" stop-color="#696dd8"/>
			<stop offset=".254" stop-color="#686ed7"/>
			<stop offset=".258" stop-color="#686ed7"/>
			<stop offset=".262" stop-color="#676fd6"/>
			<stop offset=".266" stop-color="#676fd6"/>
			<stop offset=".27" stop-color="#666fd5"/>
			<stop offset=".273" stop-color="#6670d4"/>
			<stop offset=".277" stop-color="#6570d4"/>
			<stop offset=".281" stop-color="#6571d3"/>
			<stop offset=".285" stop-color="#6471d2"/>
			<stop offset=".289" stop-color="#6472d2"/>
			<stop offset=".293" stop-color="#6372d1"/>
			<stop offset=".297" stop-color="#6272d1"/>
			<stop offset=".301" stop-color="#6273d0"/>
			<stop offset=".305" stop-color="#6173cf"/>
			<stop offset=".309" stop-color="#6174cf"/>
			<stop offset=".313" stop-color="#6074ce"/>
			<stop offset=".316" stop-color="#6075ce"/>
			<stop offset=".32" stop-color="#5f75cd"/>
			<stop offset=".324" stop-color="#5f75cc"/>
			<stop offset=".328" stop-color="#5e76cc"/>
			<stop offset=".332" stop-color="#5e76cb"/>
			<stop offset=".336" stop-color="#5d77cb"/>
			<stop offset=".34" stop-color="#5c77ca"/>
			<stop offset=".344" stop-color="#5c78c9"/>
			<stop offset=".348" stop-color="#5b78c9"/>
			<stop offset=".352" stop-color="#5b78c8"/>
			<stop offset=".355" stop-color="#5a79c8"/>
			<stop offset=".359" stop-color="#5a79c7"/>
			<stop offset=".363" stop-color="#597ac6"/>
			<stop offset=".367" stop-color="#597ac6"/>
			<stop offset=".371" stop-color="#587bc5"/>
			<stop offset=".375" stop-color="#577bc4"/>
			<stop offset=".379" stop-color="#577bc4"/>
			<stop offset=".383" stop-color="#567cc3"/>
			<stop offset=".387" stop-color="#567cc3"/>
			<stop offset=".391" stop-color="#557dc2"/>
			<stop offset=".395" stop-color="#557dc1"/>
			<stop offset=".398" stop-color="#547dc1"/>
			<stop offset=".402" stop-color="#547ec0"/>
			<stop offset=".406" stop-color="#537ec0"/>
			<stop offset=".41" stop-color="#537fbf"/>
			<stop offset=".414" stop-color="#527fbe"/>
			<stop offset=".418" stop-color="#5180be"/>
			<stop offset=".422" stop-color="#5180bd"/>
			<stop offset=".426" stop-color="#5080bd"/>
			<stop offset=".43" stop-color="#5081bc"/>
			<stop offset=".434" stop-color="#4f81bb"/>
			<stop offset=".438" stop-color="#4f82bb"/>
			<stop offset=".441" stop-color="#4e82ba"/>
			<stop offset=".445" stop-color="#4e83ba"/>
			<stop offset=".449" stop-color="#4d83b9"/>
			<stop offset=".453" stop-color="#4d83b8"/>
			<stop offset=".457" stop-color="#4c84b8"/>
			<stop offset=".461" stop-color="#4b84b7"/>
			<stop offset=".465" stop-color="#4b85b6"/>
			<stop offset=".469" stop-color="#4a85b6"/>
			<stop offset=".473" stop-color="#4a86b5"/>
			<stop offset=".477" stop-color="#4986b5"/>
			<stop offset=".48" stop-color="#4986b4"/>
			<stop offset=".484" stop-color="#4887b3"/>
			<stop offset=".488" stop-color="#4887b3"/>
			<stop offset=".492" stop-color="#4788b2"/>
			<stop offset=".496" stop-color="#4788b2"/>
			<stop offset=".5" stop-color="#4689b1"/>
			<stop offset=".504" stop-color="#4589b0"/>
			<stop offset=".508" stop-color="#4589b0"/>
			<stop offset=".512" stop-color="#448aaf"/>
			<stop offset=".516" stop-color="#448aaf"/>
			<stop offset=".52" stop-color="#438bae"/>
			<stop offset=".523" stop-color="#438bad"/>
			<stop offset=".527" stop-color="#428cad"/>
			<stop offset=".531" stop-color="#428cac"/>
			<stop offset=".535" stop-color="#418cab"/>
			<stop offset=".539" stop-color="#418dab"/>
			<stop offset=".543" stop-color="#408daa"/>
			<stop offset=".547" stop-color="#3f8eaa"/>
			<stop offset=".551" stop-color="#3f8ea9"/>
			<stop offset=".555" stop-color="#3e8fa8"/>
			<stop offset=".559" stop-color="#3e8fa8"/>
			<stop offset=".563" stop-color="#3d8fa7"/>
			<stop offset=".566" stop-color="#3d90a7"/>
			<stop offset=".57" stop-color="#3c90a6"/>
			<stop offset=".574" stop-color="#3c91a5"/>
			<stop offset=".578" stop-color="#3b91a5"/>
			<stop offset=".582" stop-color="#3b91a4"/>
			<stop offset=".586" stop-color="#3a92a4"/>
			<stop offset=".59" stop-color="#3992a3"/>
			<stop offset=".594" stop-color="#3993a2"/>
			<stop offset=".598" stop-color="#3893a2"/>
			<stop offset=".602" stop-color="#3894a1"/>
			<stop offset=".605" stop-color="#3794a1"/>
			<stop offset=".609" stop-color="#3794a0"/>
			<stop offset=".613" stop-color="#36959f"/>
			<stop offset=".617" stop-color="#36959f"/>
			<stop offset=".621" stop-color="#35969e"/>
			<stop offset=".625" stop-color="#34969d"/>
			<stop offset=".629" stop-color="#34979d"/>
			<stop offset=".633" stop-color="#33979c"/>
			<stop offset=".637" stop-color="#33979c"/>
			<stop offset=".641" stop-color="#32989b"/>
			<stop offset=".645" stop-color="#32989a"/>
			<stop offset=".648" stop-color="#31999a"/>
			<stop offset=".652" stop-color="#319999"/>
			<stop offset=".656" stop-color="#309a99"/>
			<stop offset=".66" stop-color="#309a98"/>
			<stop offset=".664" stop-color="#2f9a97"/>
			<stop offset=".668" stop-color="#2e9b97"/>
			<stop offset=".672" stop-color="#2e9b96"/>
			<stop offset=".676" stop-color="#2d9c96"/>
			<stop offset=".68" stop-color="#2d9c95"/>
			<stop offset=".684" stop-color="#2c9d94"/>
			<stop offset=".688" stop-color="#2c9d94"/>
			<stop offset=".691" stop-color="#2b9d93"/>
			<stop offset=".695" stop-color="#2b9e92"/>
			<stop offset=".699" stop-color="#2a9e92"/>
			<stop offset=".703" stop-color="#2a9f91"/>
			<stop offset=".707" stop-color="#299f91"/>
			<stop offset=".711" stop-color="#28a090"/>
			<stop offset=".715" stop-color="#28a08f"/>
			<stop offset=".719" stop-color="#27a08f"/>
			<stop offset=".723" stop-color="#27a18e"/>
			<stop offset=".727" stop-color="#26a18e"/>
			<stop offset=".73" stop-color="#26a28d"/>
			<stop offset=".734" stop-color="#25a28c"/>
			<stop offset=".738" stop-color="#25a28c"/>
			<stop offset=".742" stop-color="#24a38b"/>
			<stop offset=".746" stop-color="#24a38b"/>
			<stop offset=".75" stop-color="#23a48a"/>
			<stop offset=".754" stop-color="#22a489"/>
			<stop offset=".758" stop-color="#22a589"/>
			<stop offset=".762" stop-color="#21a588"/>
			<stop offset=".766" stop-color="#21a588"/>
			<stop offset=".77" stop-color="#20a687"/>
			<stop offset=".773" stop-color="#20a686"/>
			<stop offset=".777" stop-color="#1fa786"/>
			<stop offset=".781" stop-color="#1fa785"/>
			<stop offset=".785" stop-color="#1ea884"/>
			<stop offset=".789" stop-color="#1ea884"/>
			<stop offset=".793" stop-color="#1da883"/>
			<stop offset=".797" stop-color="#1ca983"/>
			<stop offset=".801" stop-color="#1ca982"/>
			<stop offset=".805" stop-color="#1baa81"/>
			<stop offset=".809" stop-color="#1baa81"/>
			<stop offset=".813" stop-color="#1aab80"/>
			<stop offset=".816" stop-color="#1aab80"/>
			<stop offset=".82" stop-color="#19ab7f"/>
			<stop offset=".824" stop-color="#19ac7e"/>
			<stop offset=".828" stop-color="#18ac7e"/>
			<stop offset=".832" stop-color="#18ad7d"/>
			<stop offset=".836" stop-color="#17ad7d"/>
			<stop offset=".84" stop-color="#16ae7c"/>
			<stop offset=".844" stop-color="#16ae7b"/>
			<stop offset=".848" stop-color="#15ae7b"/>
			<stop offset=".852" stop-color="#15af7a"/>
			<stop offset=".855" stop-color="#14af79"/>
			<stop offset=".859" stop-color="#14b079"/>
			<stop offset=".863" stop-color="#13b078"/>
			<stop offset=".867" stop-color="#13b178"/>
			<stop offset=".871" stop-color="#12b177"/>
			<stop offset=".875" stop-color="#11b176"/>
			<stop offset=".879" stop-color="#11b276"/>
			<stop offset=".883" stop-color="#10b275"/>
			<stop offset=".887" stop-color="#10b375"/>
			<stop offset=".891" stop-color="#0fb374"/>
			<stop offset=".895" stop-color="#0fb473"/>
			<stop offset=".898" stop-color="#0eb473"/>
			<stop offset=".902" stop-color="#0eb472"/>
			<stop offset=".906" stop-color="#0db572"/>
			<stop offset=".91" stop-color="#0db571"/>
			<stop offset=".914" stop-color="#0cb670"/>
			<stop offset=".918" stop-color="#0bb670"/>
			<stop offset=".922" stop-color="#0bb66f"/>
			<stop offset=".926" stop-color="#0ab76f"/>
			<stop offset=".93" stop-color="#0ab76e"/>
			<stop offset=".934" stop-color="#09b86d"/>
			<stop offset=".938" stop-color="#09b86d"/>
			<stop offset=".941" stop-color="#08b96c"/>
			<stop offset=".945" stop-color="#08b96b"/>
			<stop offset=".949" stop-color="#07b96b"/>
			<stop offset=".953" stop-color="#07ba6a"/>
			<stop offset=".957" stop-color="#06ba6a"/>
			<stop offset=".961" stop-color="#05bb69"/>
			<stop offset=".965" stop-color="#05bb68"/>
			<stop offset=".969" stop-color="#04bc68"/>
			<stop offset=".973" stop-color="#04bc67"/>
			<stop offset=".977" stop-color="#03bc67"/>
			<stop offset=".98" stop-color="#03bd66"/>
			<stop offset=".984" stop-color="#02bd65"/>
			<stop offset=".988" stop-color="#02be65"/>
			<stop offset=".992" stop-color="#01be64"/>
			<stop offset=".996" stop-color="#01bf64"/>
			<stop offset="1" stop-color="#00bf63"/>
		</linearGradient>
	</defs>
	<style>
		.s0 { fill: url(#g1) } 
		.s1 { fill: #ffffff } 
		.s2 { fill: #0bb76f } 
		.s3 { fill: none;stroke: url(#g2);stroke-linecap: round;stroke-width: 11.1 } 
	</style>
	<g id="Clip-Path" clip-path="url(#cp1)">
		<g id="Layer">
			<g id="Clip-Path" clip-path="url(#cp2)">
				<g id="Layer">
					<path id="Layer" class="s0" d="m10.8 9l-0.1 90.6h90.6v-90.6z"/>
				</g>
			</g>
		</g>
	</g>
	<g id="Clip-Path" clip-path="url(#cp3)">
		<g id="Layer">
			<path id="Layer" class="s1" d="m90.7 15.8l-0.4-0.3c-1.2-1-2.7-1.4-4.1-1.3-1.5 0.1-2.8 0.8-3.8 2l-12.7 14.9-7.4 9-5.5 6.6-3.8-4-2.1-2.2-7.4-7.7c-1-1.1-2.4-1.7-3.9-1.8-1.4-0.1-2.9 0.5-4 1.6l-0.4 0.3c-2.3 2.1-2.3 5.8-0.2 8l7.3 7.7 2.1 2.3 8.4 8.8c1 1 2.3 1.7 3.6 1.7 0.1 0 0.1 0 0.1 0 0.1 0 0.1 0 0.3 0 0 0 0 0 0.1 0 0.2 0 0.4 0 0.7 0 1.5-0.1 2.8-0.8 3.8-1.9l12.6-14.9 4.9-6 12.5-14.8c2-2.4 1.7-6-0.7-8.1z"/>
		</g>
	</g>
	<g id="Layer">
		<g id="Layer">
			<g id="Layer">
				<path id="Layer" fill-rule="evenodd" class="s2" d="m135 50.6q0-8.2 3.1-14.4 3.1-6.2 8.4-9.5 5.4-3.3 11.9-3.3 5.7 0 9.9 2.3 4.2 2.2 6.5 6v-7.6h16.3v53.2h-16.3v-7.6q-2.4 3.8-6.6 6.1-4.2 2.2-9.9 2.2-6.4 0-11.8-3.3-5.3-3.4-8.4-9.7-3.1-6.2-3.1-14.4zm39.8 0.1q0-6.1-3.4-9.6-3.3-3.5-8.2-3.5-4.9 0-8.3 3.4-3.3 3.5-3.3 9.6 0 6.1 3.3 9.7 3.4 3.5 8.3 3.5 4.9 0 8.2-3.5 3.4-3.5 3.4-9.6z"/>
			</g>
		</g>
	</g>
	<g id="Layer">
		<g id="Layer">
			<g id="Layer">
				<path id="Layer" class="s2" d="m218.4 78q-6.9 0-12.4-2.3-5.4-2.4-8.5-6.6-3.2-4.1-3.5-9.3h16q0.3 2.8 2.6 4.5 2.3 1.7 5.7 1.7 3 0 4.7-1.1 1.6-1.2 1.6-3.2 0-2.2-2.4-3.3-2.3-1.1-7.7-2.5-5.7-1.3-9.5-2.8-3.8-1.4-6.6-4.6-2.7-3.2-2.7-8.7 0-4.5 2.5-8.3 2.5-3.7 7.4-5.9 4.9-2.2 11.7-2.2 10 0 15.7 4.9 5.8 5 6.7 13.2h-15.1q-0.3-2.8-2.4-4.4-2.1-1.6-5.4-1.6-2.8 0-4.4 1.1-1.5 1.1-1.5 3 0 2.2 2.4 3.4 2.5 1.1 7.6 2.3 5.9 1.5 9.6 3 3.7 1.5 6.5 4.7 2.9 3.3 3 8.8 0 4.7-2.7 8.4-2.6 3.7-7.5 5.8-4.9 2-11.4 2z"/>
			</g>
		</g>
	</g>
	<g id="Layer">
		<g id="Layer">
			<g id="Layer">
				<path id="Layer" class="s2" d="m276.3 77.3l-16.2-22.3v22.3h-16.2v-70.5h16.2v38.9l16.2-21.6h20l-22 26.7 22.2 26.5z"/>
			</g>
		</g>
	</g>
	<path id="Layer" fill-rule="evenodd" class="s3" d="m117.7 94.5h197"/>
	<g id="Layer">
		<g id="Layer">
			<g id="Layer">
				<path id="Layer" class="s2" d="m355 23.8l-32.5 76.4h-17.1l11.9-26.4-21.1-50h17.8l11.9 32.4 11.9-32.4z"/>
			</g>
		</g>
	</g>
	<g id="Layer">
		<g id="Layer">
			<g id="Layer">
				<path id="Layer" class="s2" d="m148.3 10.4v13.1h-17.7v53.8h-16.3v-53.8h-17.8v-13.1z"/>
			</g>
		</g>
	</g>
</svg>